Step 4 Summary (Description and analysis) | My Bookdown
…
4.5 Graphing percentage of total soil carbon over 50 years

#Summarizing data set
summary_C<- Carbon_trends%>%
  group_by(Treatment, year)%>%
   summarise( 
    n=n(),
    mean=mean(pctC),
    sd=sd(pctC),
    se=sd/sqrt(n)) 
summary_C

## # A tibble: 144 × 6
## # Groups:   Treatment [4]
##    Treatment      year      n  mean    sd     se
##    <chr>          <fct> <int> <dbl> <dbl>  <dbl>
##  1 Alfalfa fallow 2015     65  1.85 0.498 0.0617
##  2 Alfalfa fallow 2016     65  1.83 0.458 0.0568
##  3 Alfalfa fallow 2017     65  1.79 0.462 0.0573
##  4 Alfalfa fallow 2018     65  1.76 0.445 0.0552
##  5 Alfalfa fallow 2019     65  1.76 0.437 0.0542
##  6 Alfalfa fallow 2020     65  2.06 0.382 0.0474
##  7 Alfalfa fallow 2021     65  2.00 0.385 0.0478
##  8 Alfalfa fallow 2022     65  1.92 0.366 0.0454
##  9 Alfalfa fallow 2023     65  1.87 0.368 0.0456
## 10 Alfalfa fallow 2024     65  1.85 0.359 0.0445
## # … with 134 more rows
…
